%YAML 1.1
%TAG !u! tag:unity3d.com,2011:
--- !u!114 &11400000
MonoBehaviour:
  m_ObjectHideFlags: 0
  m_CorrespondingSourceObject: {fileID: 0}
  m_PrefabInstance: {fileID: 0}
  m_PrefabAsset: {fileID: 0}
  m_GameObject: {fileID: 0}
  m_Enabled: 1
  m_EditorHideFlags: 0
  m_Script: {fileID: 11500000, guid: 9fa56376ab4e8d04dbfa90f2d844f686, type: 3}
  m_Name: Weapon1InstuctionCollectible
  m_EditorClassIdentifier: 
  ItemId: 2
  CollectibleItemType: 0
  Description: Collictible for creating weapon 1
