%YAML 1.1
%TAG !u! tag:unity3d.com,2011:
--- !u!114 &11400000
MonoBehaviour:
  m_ObjectHideFlags: 0
  m_CorrespondingSourceObject: {fileID: 0}
  m_PrefabInstance: {fileID: 0}
  m_PrefabAsset: {fileID: 0}
  m_GameObject: {fileID: 0}
  m_Enabled: 1
  m_EditorHideFlags: 0
  m_Script: {fileID: 11500000, guid: 9b530f19caee49c6867b5d7bc6fd33c5, type: 3}
  m_Name: Weapon1
  m_EditorClassIdentifier: 
  Weapon: {fileID: 11400000, guid: 29a10242d9647ed47bc8159af0ddf513, type: 2}
  CraftVariables: {fileID: 11400000, guid: 25fa66c7ab76be84f88b3af98746400d, type: 2}
  CraftRequirements:
  - Item: {fileID: 11400000, guid: edb3154bb62286c448160b2e351d970a, type: 2}
    Count: 1
  - Item: {fileID: 11400000, guid: 1bd6f4c706e79214a8d17157ac188dac, type: 2}
    Count: 5
  - Item: {fileID: 11400000, guid: 7ad2bda8cf1e87245a0afc4e471be268, type: 2}
    Count: 4
